Gov 50 Final Project
…
long_data

# A tibble: 8,512 × 3
   Country.Name year  labor_participation
   <chr>        <chr>               <dbl>
 1 Afghanistan  X1994                16.7
 2 Afghanistan  X1995                16.6
 3 Afghanistan  X1996                16.4
 4 Afghanistan  X1997                16.2
 5 Afghanistan  X1998                16.0
 6 Afghanistan  X1999                15.8
 7 Afghanistan  X2000                15.6
 8 Afghanistan  X2001                15.5
 9 Afghanistan  X2002                15.4
10 Afghanistan  X2003                15.4
# ℹ 8,502 more rows
…
algeria_data1 <- long_data |>
  filter(Country.Name == "Algeria") |>
  mutate(year = as.numeric(gsub("X", "", year))) 

algeria_data1 <- algeria_data1 |>
  rename(Entity = Country.Name, Year = year)

algeria_data1

# A tibble: 32 × 3
   Entity   Year labor_participation
   <chr>   <dbl>               <dbl>
 1 Algeria  1994                12.2
 2 Algeria  1995                12.3
 3 Algeria  1996                12.5
 4 Algeria  1997                12.7
 5 Algeria  1998                12.8
 6 Algeria  1999                13.0
 7 Algeria  2000                13.2
 8 Algeria  2001                13.4
 9 Algeria  2002                13.7
10 Algeria  2003                13.9
# ℹ 22 more rows
…
